
testing komplex_new...
z = (1.1,2.1)
z should now be = (1.1,2.1)
test passed :) 

testing komplex_set
z is now = (1.2,2.2)
z should now be = (1.2,2.2)
test passed :) 

testing komplex_add...
a= (1,2)
b= (3,4)
a+b should   =  (4,6)
a+b actually =  (4,6)
test passed :) 

testing komplex_mult
a*b = (-5,10)
