
main: testing nvector_alloc ...
test passed

main: testing nvector_set and nvector_get ...
vi = 0.840188, value = 0.840188
test failed

main: testing nvector_add ...
a+b should   =  1.17748 1.71009 0.532774 1.046 1.03137 
a+b actually =  1.17748 1.71009 0.532774 1.046 1.03137 
test passed

main: testing nvector_dot_product
dot product = 3.44261

main: testing nvector_set_zero
vector e =  0 0 0 0 0 
