time	activity	error
0.47	5.49	0.26
1.41	4.08	0.12
2.36	3.54	0.27
3.3	2.61	0.1
4.24	2.09	0.15
5.18	1.91	0.11
6.13	1.55	0.13
7.07	1.47	0.07
8.01	1.45	0.15
8.95	1.25	0.09


t	f
0.47	5.2604
0.6396	5.02572
0.8092	4.80385
0.9788	4.59408
1.1484	4.39576
1.318	4.20826
1.4876	4.03099
1.6572	3.86339
1.8268	3.70494
1.9964	3.55513
2.166	3.4135
2.3356	3.2796
2.5052	3.15301
2.6748	3.03332
2.8444	2.92016
3.014	2.81318
3.1836	2.71204
3.3532	2.61641
3.5228	2.52601
3.6924	2.44053
3.862	2.35972
4.0316	2.28332
4.2012	2.21109
4.3708	2.1428
4.5404	2.07824
4.71	2.0172
4.8796	1.95949
5.0492	1.90493
5.2188	1.85335
5.3884	1.80458
5.558	1.75847
5.7276	1.71488
5.8972	1.67366
6.0668	1.6347
6.2364	1.59786
6.406	1.56304
6.5756	1.53011
6.7452	1.49898
6.9148	1.46955
7.0844	1.44172
7.254	1.41541
7.4236	1.39054
7.5932	1.36703
7.7628	1.34479
7.9324	1.32378
8.102	1.3039
8.2716	1.28512
8.4412	1.26736
8.6108	1.25056
8.7804	1.23469
8.95	1.21968
9.1196	1.20548


t	f
0.47	5.40618
0.6396	5.14312
0.8092	4.89614
0.9788	4.66426
1.1484	4.44655
1.318	4.24216
1.4876	4.05026
1.6572	3.87009
1.8268	3.70094
1.9964	3.54212
2.166	3.39302
2.3356	3.25303
2.5052	3.1216
2.6748	2.99821
2.8444	2.88236
3.014	2.77359
3.1836	2.67147
3.3532	2.5756
3.5228	2.48558
3.6924	2.40107
3.862	2.32173
4.0316	2.24723
4.2012	2.17729
4.3708	2.11163
4.5404	2.04998
4.71	1.9921
4.8796	1.93776
5.0492	1.88674
5.2188	1.83884
5.3884	1.79386
5.558	1.75164
5.7276	1.712
5.8972	1.67478
6.0668	1.63984
6.2364	1.60703
6.406	1.57623
6.5756	1.54731
6.7452	1.52016
6.9148	1.49467
7.0844	1.47074
7.254	1.44827
7.4236	1.42718
7.5932	1.40737
7.7628	1.38877
7.9324	1.37132
8.102	1.35493
8.2716	1.33954
8.4412	1.32509
8.6108	1.31153
8.7804	1.29879
8.95	1.28683
9.1196	1.27561


