<?xml version="1.0" encoding="utf-8"  standalone="no"?>
<!DOCTYPE svg PUBLIC "-//W3C//DTD SVG 1.1//EN"
 "http://www.w3.org/Graphics/SVG/1.1/DTD/svg11.dtd">
<svg 
 width="600" height="480"
 viewBox="0 0 600 480"
 xmlns="http://www.w3.org/2000/svg"
 xmlns:xlink="http://www.w3.org/1999/xlink"
>

<title>Gnuplot</title>
<desc>Produced by GNUPLOT 5.0 patchlevel 3 </desc>

<g id="gnuplot_canvas">

<rect x="0" y="0" width="600" height="480" fill="#ffffff"/>
<defs>

	<circle id='gpDot' r='0.5' stroke-width='0.5'/>
	<path id='gpPt0' stroke-width='0.179' stroke='currentColor' d='M-1,0 h2 M0,-1 v2'/>
	<path id='gpPt1' stroke-width='0.179' stroke='currentColor' d='M-1,-1 L1,1 M1,-1 L-1,1'/>
	<path id='gpPt2' stroke-width='0.179' stroke='currentColor' d='M-1,0 L1,0 M0,-1 L0,1 M-1,-1 L1,1 M-1,1 L1,-1'/>
	<rect id='gpPt3' stroke-width='0.179' stroke='currentColor' x='-1' y='-1' width='2' height='2'/>
	<rect id='gpPt4' stroke-width='0.179' stroke='currentColor' fill='currentColor' x='-1' y='-1' width='2' height='2'/>
	<circle id='gpPt5' stroke-width='0.179' stroke='currentColor' cx='0' cy='0' r='1'/>
	<use xlink:href='#gpPt5' id='gpPt6' fill='currentColor' stroke='none'/>
	<path id='gpPt7' stroke-width='0.179' stroke='currentColor' d='M0,-1.33 L-1.33,0.67 L1.33,0.67 z'/>
	<use xlink:href='#gpPt7' id='gpPt8' fill='currentColor' stroke='none'/>
	<use xlink:href='#gpPt7' id='gpPt9' stroke='currentColor' transform='rotate(180)'/>
	<use xlink:href='#gpPt9' id='gpPt10' fill='currentColor' stroke='none'/>
	<use xlink:href='#gpPt3' id='gpPt11' stroke='currentColor' transform='rotate(45)'/>
	<use xlink:href='#gpPt11' id='gpPt12' fill='currentColor' stroke='none'/>
	<path id='gpPt13' stroke-width='0.179' stroke='currentColor' d='M0,1.330 L1.265,0.411 L0.782,-1.067 L-0.782,-1.076 L-1.265,0.411 z'/>
	<use xlink:href='#gpPt13' id='gpPt14' fill='currentColor' stroke='none'/>
	<filter id='textbox' filterUnits='objectBoundingBox' x='0' y='0' height='1' width='1'>
	  <feFlood flood-color='#FFFFFF' flood-opacity='1' result='bgnd'/>
	  <feComposite in='SourceGraphic' in2='bgnd' operator='atop'/>
	</filter>
	<filter id='greybox' filterUnits='objectBoundingBox' x='0' y='0' height='1' width='1'>
	  <feFlood flood-color='lightgrey' flood-opacity='1' result='grey'/>
	  <feComposite in='SourceGraphic' in2='grey' operator='atop'/>
	</filter>
</defs>
<g fill="none" color="#FFFFFF" stroke="currentColor" stroke-width="1.00" stroke-linecap="butt" stroke-linejoin="miter">
</g>
<g fill="none" color="black" stroke="currentColor" stroke-width="1.00" stroke-linecap="butt" stroke-linejoin="miter">
	<path stroke='black'  d='M90.6,408.4 L101.8,408.4 M568.4,408.4 L557.2,408.4  '/>	<g transform="translate(80.1,414.0)" stroke="none" fill="black" font-family="0" font-size="15.00"  text-anchor="end">
		<text><tspan font-family="0" > 1</tspan></text>
	</g>
</g>
<g fill="none" color="black" stroke="currentColor" stroke-width="1.00" stroke-linecap="butt" stroke-linejoin="miter">
	<path stroke='black'  d='M90.6,374.3 L101.8,374.3 M568.4,374.3 L557.2,374.3  '/>	<g transform="translate(80.1,379.9)" stroke="none" fill="black" font-family="0" font-size="15.00"  text-anchor="end">
		<text><tspan font-family="0" > 1.5</tspan></text>
	</g>
</g>
<g fill="none" color="black" stroke="currentColor" stroke-width="1.00" stroke-linecap="butt" stroke-linejoin="miter">
	<path stroke='black'  d='M90.6,340.2 L101.8,340.2 M568.4,340.2 L557.2,340.2  '/>	<g transform="translate(80.1,345.8)" stroke="none" fill="black" font-family="0" font-size="15.00"  text-anchor="end">
		<text><tspan font-family="0" > 2</tspan></text>
	</g>
</g>
<g fill="none" color="black" stroke="currentColor" stroke-width="1.00" stroke-linecap="butt" stroke-linejoin="miter">
	<path stroke='black'  d='M90.6,306.1 L101.8,306.1 M568.4,306.1 L557.2,306.1  '/>	<g transform="translate(80.1,311.7)" stroke="none" fill="black" font-family="0" font-size="15.00"  text-anchor="end">
		<text><tspan font-family="0" > 2.5</tspan></text>
	</g>
</g>
<g fill="none" color="black" stroke="currentColor" stroke-width="1.00" stroke-linecap="butt" stroke-linejoin="miter">
	<path stroke='black'  d='M90.6,272.0 L101.8,272.0 M568.4,272.0 L557.2,272.0  '/>	<g transform="translate(80.1,277.6)" stroke="none" fill="black" font-family="0" font-size="15.00"  text-anchor="end">
		<text><tspan font-family="0" > 3</tspan></text>
	</g>
</g>
<g fill="none" color="black" stroke="currentColor" stroke-width="1.00" stroke-linecap="butt" stroke-linejoin="miter">
	<path stroke='black'  d='M90.6,237.8 L101.8,237.8 M568.4,237.8 L557.2,237.8  '/>	<g transform="translate(80.1,243.4)" stroke="none" fill="black" font-family="0" font-size="15.00"  text-anchor="end">
		<text><tspan font-family="0" > 3.5</tspan></text>
	</g>
</g>
<g fill="none" color="black" stroke="currentColor" stroke-width="1.00" stroke-linecap="butt" stroke-linejoin="miter">
	<path stroke='black'  d='M90.6,203.7 L101.8,203.7 M568.4,203.7 L557.2,203.7  '/>	<g transform="translate(80.1,209.3)" stroke="none" fill="black" font-family="0" font-size="15.00"  text-anchor="end">
		<text><tspan font-family="0" > 4</tspan></text>
	</g>
</g>
<g fill="none" color="black" stroke="currentColor" stroke-width="1.00" stroke-linecap="butt" stroke-linejoin="miter">
	<path stroke='black'  d='M90.6,169.6 L101.8,169.6 M568.4,169.6 L557.2,169.6  '/>	<g transform="translate(80.1,175.2)" stroke="none" fill="black" font-family="0" font-size="15.00"  text-anchor="end">
		<text><tspan font-family="0" > 4.5</tspan></text>
	</g>
</g>
<g fill="none" color="black" stroke="currentColor" stroke-width="1.00" stroke-linecap="butt" stroke-linejoin="miter">
	<path stroke='black'  d='M90.6,135.5 L101.8,135.5 M568.4,135.5 L557.2,135.5  '/>	<g transform="translate(80.1,141.1)" stroke="none" fill="black" font-family="0" font-size="15.00"  text-anchor="end">
		<text><tspan font-family="0" > 5</tspan></text>
	</g>
</g>
<g fill="none" color="black" stroke="currentColor" stroke-width="1.00" stroke-linecap="butt" stroke-linejoin="miter">
	<path stroke='black'  d='M90.6,101.4 L101.8,101.4 M568.4,101.4 L557.2,101.4  '/>	<g transform="translate(80.1,107.0)" stroke="none" fill="black" font-family="0" font-size="15.00"  text-anchor="end">
		<text><tspan font-family="0" > 5.5</tspan></text>
	</g>
</g>
<g fill="none" color="black" stroke="currentColor" stroke-width="1.00" stroke-linecap="butt" stroke-linejoin="miter">
	<path stroke='black'  d='M90.6,67.3 L101.8,67.3 M568.4,67.3 L557.2,67.3  '/>	<g transform="translate(80.1,72.9)" stroke="none" fill="black" font-family="0" font-size="15.00"  text-anchor="end">
		<text><tspan font-family="0" > 6</tspan></text>
	</g>
</g>
<g fill="none" color="black" stroke="currentColor" stroke-width="1.00" stroke-linecap="butt" stroke-linejoin="miter">
	<path stroke='black'  d='M90.6,408.4 L90.6,397.2 M90.6,67.3 L90.6,78.5  '/>	<g transform="translate(90.6,436.4)" stroke="none" fill="black" font-family="0" font-size="15.00"  text-anchor="middle">
		<text><tspan font-family="0" > 0</tspan></text>
	</g>
</g>
<g fill="none" color="black" stroke="currentColor" stroke-width="1.00" stroke-linecap="butt" stroke-linejoin="miter">
	<path stroke='black'  d='M138.4,408.4 L138.4,397.2 M138.4,67.3 L138.4,78.5  '/>	<g transform="translate(138.4,436.4)" stroke="none" fill="black" font-family="0" font-size="15.00"  text-anchor="middle">
		<text><tspan font-family="0" > 1</tspan></text>
	</g>
</g>
<g fill="none" color="black" stroke="currentColor" stroke-width="1.00" stroke-linecap="butt" stroke-linejoin="miter">
	<path stroke='black'  d='M186.2,408.4 L186.2,397.2 M186.2,67.3 L186.2,78.5  '/>	<g transform="translate(186.2,436.4)" stroke="none" fill="black" font-family="0" font-size="15.00"  text-anchor="middle">
		<text><tspan font-family="0" > 2</tspan></text>
	</g>
</g>
<g fill="none" color="black" stroke="currentColor" stroke-width="1.00" stroke-linecap="butt" stroke-linejoin="miter">
	<path stroke='black'  d='M233.9,408.4 L233.9,397.2 M233.9,67.3 L233.9,78.5  '/>	<g transform="translate(233.9,436.4)" stroke="none" fill="black" font-family="0" font-size="15.00"  text-anchor="middle">
		<text><tspan font-family="0" > 3</tspan></text>
	</g>
</g>
<g fill="none" color="black" stroke="currentColor" stroke-width="1.00" stroke-linecap="butt" stroke-linejoin="miter">
	<path stroke='black'  d='M281.7,408.4 L281.7,397.2 M281.7,67.3 L281.7,78.5  '/>	<g transform="translate(281.7,436.4)" stroke="none" fill="black" font-family="0" font-size="15.00"  text-anchor="middle">
		<text><tspan font-family="0" > 4</tspan></text>
	</g>
</g>
<g fill="none" color="black" stroke="currentColor" stroke-width="1.00" stroke-linecap="butt" stroke-linejoin="miter">
	<path stroke='black'  d='M329.5,408.4 L329.5,397.2 M329.5,67.3 L329.5,78.5  '/>	<g transform="translate(329.5,436.4)" stroke="none" fill="black" font-family="0" font-size="15.00"  text-anchor="middle">
		<text><tspan font-family="0" > 5</tspan></text>
	</g>
</g>
<g fill="none" color="black" stroke="currentColor" stroke-width="1.00" stroke-linecap="butt" stroke-linejoin="miter">
	<path stroke='black'  d='M377.3,408.4 L377.3,397.2 M377.3,67.3 L377.3,78.5  '/>	<g transform="translate(377.3,436.4)" stroke="none" fill="black" font-family="0" font-size="15.00"  text-anchor="middle">
		<text><tspan font-family="0" > 6</tspan></text>
	</g>
</g>
<g fill="none" color="black" stroke="currentColor" stroke-width="1.00" stroke-linecap="butt" stroke-linejoin="miter">
	<path stroke='black'  d='M425.1,408.4 L425.1,397.2 M425.1,67.3 L425.1,78.5  '/>	<g transform="translate(425.1,436.4)" stroke="none" fill="black" font-family="0" font-size="15.00"  text-anchor="middle">
		<text><tspan font-family="0" > 7</tspan></text>
	</g>
</g>
<g fill="none" color="black" stroke="currentColor" stroke-width="1.00" stroke-linecap="butt" stroke-linejoin="miter">
	<path stroke='black'  d='M472.8,408.4 L472.8,397.2 M472.8,67.3 L472.8,78.5  '/>	<g transform="translate(472.8,436.4)" stroke="none" fill="black" font-family="0" font-size="15.00"  text-anchor="middle">
		<text><tspan font-family="0" > 8</tspan></text>
	</g>
</g>
<g fill="none" color="black" stroke="currentColor" stroke-width="1.00" stroke-linecap="butt" stroke-linejoin="miter">
	<path stroke='black'  d='M520.6,408.4 L520.6,397.2 M520.6,67.3 L520.6,78.5  '/>	<g transform="translate(520.6,436.4)" stroke="none" fill="black" font-family="0" font-size="15.00"  text-anchor="middle">
		<text><tspan font-family="0" > 9</tspan></text>
	</g>
</g>
<g fill="none" color="black" stroke="currentColor" stroke-width="1.00" stroke-linecap="butt" stroke-linejoin="miter">
	<path stroke='black'  d='M568.4,408.4 L568.4,397.2 M568.4,67.3 L568.4,78.5  '/>	<g transform="translate(568.4,436.4)" stroke="none" fill="black" font-family="0" font-size="15.00"  text-anchor="middle">
		<text><tspan font-family="0" > 10</tspan></text>
	</g>
</g>
<g fill="none" color="black" stroke="currentColor" stroke-width="1.00" stroke-linecap="butt" stroke-linejoin="miter">
</g>
<g fill="none" color="black" stroke="currentColor" stroke-width="1.00" stroke-linecap="butt" stroke-linejoin="miter">
	<path stroke='black'  d='M90.6,67.3 L90.6,408.4 L568.4,408.4 L568.4,67.3 L90.6,67.3 Z  '/></g>
<g fill="none" color="black" stroke="currentColor" stroke-width="1.00" stroke-linecap="butt" stroke-linejoin="miter">
	<g transform="translate(22.0,237.9) rotate(270)" stroke="none" fill="black" font-family="0" font-size="15.00"  text-anchor="middle">
		<text><tspan font-family="0" >activity</tspan></text>
	</g>
</g>
<g fill="none" color="black" stroke="currentColor" stroke-width="1.00" stroke-linecap="butt" stroke-linejoin="miter">
	<g transform="translate(329.5,470.0)" stroke="none" fill="black" font-family="0" font-size="15.00"  text-anchor="middle">
		<text><tspan font-family="0" >time</tspan></text>
	</g>
</g>
<g fill="none" color="black" stroke="currentColor" stroke-width="1.00" stroke-linecap="butt" stroke-linejoin="miter">
	<g transform="translate(329.5,39.3)" stroke="none" fill="black" font-family="0" font-size="15.00"  text-anchor="middle">
		<text><tspan font-family="0" >Least-Squares</tspan></text>
	</g>
</g>
	<g id="gnuplot_plot_1" ><title>experiment</title>
<g fill="none" color="black" stroke="currentColor" stroke-width="1.00" stroke-linecap="butt" stroke-linejoin="miter">
	<g transform="translate(483.7,95.3)" stroke="none" fill="black" font-family="0" font-size="15.00"  text-anchor="end">
		<text><tspan font-family="0" >experiment</tspan></text>
	</g>
</g>
<g fill="none" color="black" stroke="currentColor" stroke-width="1.00" stroke-linecap="butt" stroke-linejoin="miter">
	<path stroke='rgb(148,   0, 211)'  d='M494.2,89.7 L547.4,89.7 M494.2,84.1 L494.2,95.3 M547.4,84.1 L547.4,95.3 M113.1,119.8 L113.1,84.4
		M107.5,119.8 L118.7,119.8 M107.5,84.4 L118.7,84.4 M158.0,206.5 L158.0,190.1 M152.4,206.5 L163.6,206.5
		M152.4,190.1 L163.6,190.1 M203.4,253.5 L203.4,216.7 M197.8,253.5 L209.0,253.5 M197.8,216.7 L209.0,216.7
		M248.3,305.4 L248.3,291.7 M242.7,305.4 L253.9,305.4 M242.7,291.7 L253.9,291.7 M293.2,344.3 L293.2,323.8
		M287.6,344.3 L298.8,344.3 M287.6,323.8 L298.8,323.8 M338.1,353.8 L338.1,338.8 M332.5,353.8 L343.7,353.8
		M332.5,338.8 L343.7,338.8 M383.5,379.7 L383.5,362.0 M377.9,379.7 L389.1,379.7 M377.9,362.0 L389.1,362.0
		M428.4,381.1 L428.4,371.6 M422.8,381.1 L434.0,381.1 M422.8,371.6 L434.0,371.6 M473.3,387.9 L473.3,367.5
		M467.7,387.9 L478.9,387.9 M467.7,367.5 L478.9,367.5 M518.2,397.5 L518.2,385.2 M512.6,397.5 L523.8,397.5
		M512.6,385.2 L523.8,385.2  '/>	<use xlink:href='#gpPt0' transform='translate(113.1,102.1) scale(5.60)' color='rgb(148,   0, 211)'/>
	<use xlink:href='#gpPt0' transform='translate(158.0,198.3) scale(5.60)' color='rgb(148,   0, 211)'/>
	<use xlink:href='#gpPt0' transform='translate(203.4,235.1) scale(5.60)' color='rgb(148,   0, 211)'/>
	<use xlink:href='#gpPt0' transform='translate(248.3,298.6) scale(5.60)' color='rgb(148,   0, 211)'/>
	<use xlink:href='#gpPt0' transform='translate(293.2,334.0) scale(5.60)' color='rgb(148,   0, 211)'/>
	<use xlink:href='#gpPt0' transform='translate(338.1,346.3) scale(5.60)' color='rgb(148,   0, 211)'/>
	<use xlink:href='#gpPt0' transform='translate(383.5,370.9) scale(5.60)' color='rgb(148,   0, 211)'/>
	<use xlink:href='#gpPt0' transform='translate(428.4,376.3) scale(5.60)' color='rgb(148,   0, 211)'/>
	<use xlink:href='#gpPt0' transform='translate(473.3,377.7) scale(5.60)' color='rgb(148,   0, 211)'/>
	<use xlink:href='#gpPt0' transform='translate(518.2,391.3) scale(5.60)' color='rgb(148,   0, 211)'/>
	<use xlink:href='#gpPt0' transform='translate(520.8,89.7) scale(5.60)' color='rgb(148,   0, 211)'/>
</g>
	</g>
	<g id="gnuplot_plot_2" ><title>fit method nm2</title>
<g fill="none" color="black" stroke="currentColor" stroke-width="1.00" stroke-linecap="butt" stroke-linejoin="miter">
	<g transform="translate(483.7,117.7)" stroke="none" fill="black" font-family="0" font-size="15.00"  text-anchor="end">
		<text><tspan font-family="0" >fit method nm2</tspan></text>
	</g>
</g>
<g fill="none" color="black" stroke="currentColor" stroke-width="1.00" stroke-linecap="butt" stroke-linejoin="miter">
	<path stroke='rgb(  0, 158, 115)'  d='M494.2,112.1 L547.4,112.1 M113.1,117.8 L121.2,133.8 L129.3,148.9 L137.4,163.2 L145.5,176.7 L153.6,189.5
		L161.7,201.6 L169.8,213.1 L177.9,223.9 L186.0,234.1 L194.1,243.8 L202.2,252.9 L210.3,261.5 L218.4,269.7
		L226.5,277.4 L234.6,284.7 L242.7,291.6 L250.8,298.1 L258.9,304.3 L267.0,310.1 L275.1,315.6 L283.2,320.9
		L291.3,325.8 L299.4,330.4 L307.5,334.8 L315.6,339.0 L323.7,342.9 L331.9,346.7 L340.0,350.2 L348.1,353.5
		L356.2,356.7 L364.3,359.6 L372.4,362.4 L380.5,365.1 L388.6,367.6 L396.7,370.0 L404.8,372.2 L412.9,374.4
		L421.0,376.4 L429.1,378.3 L437.2,380.1 L445.3,381.8 L453.4,383.4 L461.5,384.9 L469.6,386.3 L477.7,387.7
		L485.8,388.9 L493.9,390.2 L502.0,391.3 L510.1,392.4 L518.2,393.4 L526.3,394.4  '/></g>
	</g>
	<g id="gnuplot_plot_3" ><title>fit method nm2-rand</title>
<g fill="none" color="black" stroke="currentColor" stroke-width="1.00" stroke-linecap="butt" stroke-linejoin="miter">
	<g transform="translate(483.7,140.1)" stroke="none" fill="black" font-family="0" font-size="15.00"  text-anchor="end">
		<text><tspan font-family="0" >fit method nm2-rand</tspan></text>
	</g>
</g>
<g fill="none" color="black" stroke="currentColor" stroke-width="1.00" stroke-linecap="butt" stroke-linejoin="miter">
	<path stroke='rgb( 86, 180, 233)'  d='M494.2,134.5 L547.4,134.5 M113.1,107.8 L121.2,125.8 L129.3,142.6 L137.4,158.4 L145.5,173.3 L153.6,187.2
		L161.7,200.3 L169.8,212.6 L177.9,224.1 L186.0,235.0 L194.1,245.1 L202.2,254.7 L210.3,263.7 L218.4,272.1
		L226.5,280.0 L234.6,287.4 L242.7,294.4 L250.8,300.9 L258.9,307.1 L267.0,312.8 L275.1,318.2 L283.2,323.3
		L291.3,328.1 L299.4,332.6 L307.5,336.8 L315.6,340.7 L323.7,344.4 L331.9,347.9 L340.0,351.2 L348.1,354.2
		L356.2,357.1 L364.3,359.8 L372.4,362.4 L380.5,364.8 L388.6,367.0 L396.7,369.1 L404.8,371.1 L412.9,372.9
		L421.0,374.7 L429.1,376.3 L437.2,377.8 L445.3,379.3 L453.4,380.6 L461.5,381.9 L469.6,383.1 L477.7,384.2
		L485.8,385.2 L493.9,386.2 L502.0,387.1 L510.1,388.0 L518.2,388.8 L526.3,389.6  '/></g>
	</g>
<g fill="none" color="#FFFFFF" stroke="rgb( 86, 180, 233)" stroke-width="2.00" stroke-linecap="butt" stroke-linejoin="miter">
</g>
<g fill="none" color="black" stroke="currentColor" stroke-width="2.00" stroke-linecap="butt" stroke-linejoin="miter">
</g>
<g fill="none" color="black" stroke="black" stroke-width="1.00" stroke-linecap="butt" stroke-linejoin="miter">
</g>
<g fill="none" color="black" stroke="currentColor" stroke-width="1.00" stroke-linecap="butt" stroke-linejoin="miter">
	<path stroke='black'  d='M90.6,67.3 L90.6,408.4 L568.4,408.4 L568.4,67.3 L90.6,67.3 Z  '/></g>
<g fill="none" color="black" stroke="currentColor" stroke-width="1.00" stroke-linecap="butt" stroke-linejoin="miter">
</g>
</g>
</svg>

