\relax 
\newlabel{eq:function}{{2}{1}}
\@writefile{lof}{\contentsline {figure}{\numberline {1}{\ignorespaces The arccosine function of $x$, $\qopname  \relax o{arccos}(x)=a$, for $x-$values in the interval $-2\leq x \leq 2$. The function is only defined in the interval $-1\leq x \leq 1$}}{1}}
\newlabel{fig:arccos}{{1}{1}}
