\relax 
\@writefile{toc}{\contentsline {section}{\numberline {1}The name "error function"}{1}}
\@writefile{lof}{\contentsline {figure}{\numberline {1}{\ignorespaces Error function}}{1}}
\newlabel{fig:errfunc}{{1}{1}}
\@writefile{toc}{\contentsline {section}{\numberline {2}Derived and related functions}{1}}
\@writefile{toc}{\contentsline {subsection}{\numberline {2.1}Complementary error function}{1}}
